0 0 94 72 22
0 1 88 73 15
0 2 88 65 23
0 3 85 72 13
0 4 91 68 23
0 5 88 67 21
0 6 94 71 23
0 7 94 64 30
0 8 93 67 26
0 9 87 64 23
0 10 91 68 23
0 11 94 66 28
0 12 89 66 23
0 13 90 65 25
0 14 94 71 23
0 15 88 65 23
0 16 86 64 22
0 17 94 67 27
0 18 93 71 22
0 19 86 73 13
0 20 89 72 17
0 21 91 72 19
0 22 89 66 23
0 23 85 71 14
0 24 91 73 18
0 25 89 67 22
0 26 89 70 19
0 27 87 73 14
0 28 93 73 20
0 29 90 67 23
0 30 89 68 21
1 0 91 67 24
1 1 92 68 24
1 2 92 69 23
1 3 88 71 17
1 4 86 64 22
1 5 87 73 14
1 6 89 73 16
1 7 93 68 25
1 8 94 71 23
1 9 88 71 17
1 10 89 71 18
1 11 86 67 19
1 12 93 67 26
1 13 90 67 23
1 14 88 70 18
1 15 87 67 20
1 16 92 68 24
1 17 87 69 18
1 18 87 69 18
1 19 90 71 19
1 20 509 492 17
1 21 90 69 21
1 22 94 65 29
1 23 92 65 27
1 24 92 70 22
1 25 91 64 27
1 26 87 65 22
1 27 94 68 26
1 28 87 69 18
1 29 90 71 19
1 30 94 70 24
2 0 86 65 21
2 1 85 73 12
2 2 94 64 30
2 3 86 64 22
2 4 86 65 21
2 5 87 67 20
2 6 92 71 21
2 7 90 66 24
2 8 92 68 24
2 9 90 70 20
2 10 86 71 15
2 11 88 71 17
2 12 89 73 16
2 13 93 69 24
2 14 86 65 21
2 15 89 72 17
2 16 91 66 25
2 17 86 70 16
2 18 93 65 28
2 19 88 66 22
2 20 506 494 12
2 21 91 64 27
2 22 92 65 27
2 23 90 67 23
2 24 93 73 20
2 25 92 68 24
2 26 94 73 21
2 27 85 69 16
2 28 88 69 19
2 29 85 68 17
2 30 86 73 13
3 0 85 68 17
3 1 88 64 24
3 2 86 65 21
3 3 89 72 17
3 4 86 66 20
3 5 94 66 28
3 6 91 71 20
3 7 88 67 21
3 8 90 67 23
3 9 92 65 27
3 10 89 72 17
3 11 92 73 19
3 12 91 67 24
3 13 90 66 24
3 14 86 69 17
3 15 90 72 18
3 16 92 66 26
3 17 90 72 18
3 18 90 69 21
3 19 90 72 18
3 20 508 497 11
3 21 91 70 21
3 22 87 67 20
3 23 86 70 16
3 24 90 67 23
3 25 90 65 25
3 26 87 64 23
3 27 85 72 13
3 28 88 0 88
3 29 90 71 19
3 30 87 73 14
4 0 86 66 20
4 1 94 67 27
4 2 89 65 24
4 3 89 73 16
4 4 92 68 24
4 5 94 73 21
4 6 94 68 26
4 7 90 71 19
4 8 86 73 13
4 9 88 66 22
4 10 90 68 22
4 11 87 65 22
4 12 91 67 24
4 13 93 69 24
4 14 90 71 19
4 15 85 73 12
4 16 85 68 17
4 17 89 64 25
4 18 91 70 21
4 19 87 67 20
4 20 501 498 3
4 21 88 68 20
4 22 88 69 19
4 23 91 66 25
4 24 93 65 28
4 25 90 64 26
4 26 86 69 17
4 27 88 72 16
4 28 92 69 23
4 29 91 67 24
4 30 86 64 22
5 0 92 72 20
5 1 92 69 23
5 2 94 73 21
5 3 87 69 18
5 4 90 64 26
5 5 85 66 19
5 6 90 67 23
5 7 87 71 16
5 8 92 71 21
5 9 86 67 19
5 10 93 66 27
5 11 92 68 24
5 12 90 64 26
5 13 88 66 22
5 14 85 71 14
5 15 92 68 24
5 16 94 64 30
5 17 90 68 22
5 18 90 64 26
5 19 88 68 20
5 20 501 493 8
5 21 91 64 27
5 22 94 69 25
5 23 91 65 26
5 24 87 70 17
5 25 94 64 30
5 26 92 71 21
5 27 89 64 25
5 28 90 66 24
5 29 94 73 21
5 30 85 68 17
6 0 87 70 17
6 1 86 65 21
6 2 86 67 19
6 3 90 66 24
6 4 90 70 20
6 5 85 66 19
6 6 87 70 17
6 7 90 68 22
6 8 88 71 17
6 9 93 70 23
6 10 91 73 18
6 11 94 70 24
6 12 85 65 20
6 13 87 71 16
6 14 91 70 21
6 15 90 67 23
6 16 87 65 22
6 17 86 67 19
6 18 87 73 14
6 19 91 67 24
6 20 504 490 14
6 21 85 69 16
6 22 94 71 23
6 23 89 68 21
6 24 92 73 19
6 25 94 72 22
6 26 91 67 24
6 27 94 67 27
6 28 85 66 19
6 29 90 72 18
6 30 86 71 15
7 0 91 69 22
7 1 87 66 21
7 2 89 69 20
7 3 89 71 18
7 4 94 71 23
7 5 92 65 27
7 6 85 64 21
7 7 90 71 19
7 8 92 69 23
7 9 85 66 19
7 10 88 67 21
7 11 87 73 14
7 12 92 69 23
7 13 90 70 20
7 14 85 73 12
7 15 90 69 21
7 16 87 69 18
7 17 93 71 22
7 18 91 64 27
7 19 90 68 22
7 20 505 491 14
7 21 87 72 15
7 22 86 67 19
7 23 85 71 14
7 24 86 70 16
7 25 90 69 21
7 26 89 69 20
7 27 87 66 21
7 28 85 69 16
7 29 85 69 16
7 30 88 72 16
8 0 92 65 27
8 1 90 68 22
8 2 89 64 25
8 3 87 68 19
8 4 92 71 21
8 5 87 67 20
8 6 91 68 23
8 7 86 69 17
8 8 90 67 23
8 9 94 68 26
8 10 93 65 28
8 11 85 71 14
8 12 94 69 25
8 13 90 65 25
8 14 86 65 21
8 15 85 68 17
8 16 93 69 24
8 17 88 70 18
8 18 94 73 21
8 19 93 64 29
8 20 506 496 10
8 21 92 73 19
8 22 87 66 21
8 23 93 73 20
8 24 91 69 22
8 25 85 68 17
8 26 93 65 28
8 27 91 64 27
8 28 91 73 18
8 29 86 71 15
8 30 93 70 23
9 0 92 69 23
9 1 87 71 16
9 2 94 64 30
9 3 93 64 29
9 4 90 73 17
9 5 88 65 23
9 6 90 69 21
9 7 92 69 23
9 8 92 64 28
9 9 91 66 25
9 10 93 67 26
9 11 94 64 30
9 12 89 69 20
9 13 91 71 20
9 14 85 70 15
9 15 86 72 14
9 16 91 73 18
9 17 88 71 17
9 18 85 69 16
9 19 90 67 23
9 20 501 494 7
9 21 92 66 26
9 22 85 69 16
9 23 94 64 30
9 24 85 67 18
9 25 85 73 12
9 26 91 66 25
9 27 87 68 19
9 28 93 67 26
9 29 88 67 21
9 30 87 71 16
10 0 89 68 21
10 1 86 72 14
10 2 87 67 20
10 3 86 67 19
10 4 92 65 27
10 5 87 65 22
10 6 90 69 21
10 7 86 72 14
10 8 87 65 22
10 9 91 64 27
10 10 91 72 19
10 11 94 72 22
10 12 90 69 21
10 13 94 73 21
10 14 92 68 24
10 15 86 72 14
10 16 91 64 27
10 17 92 68 24
10 18 85 73 12
10 19 87 67 20
10 20 507 492 15
10 21 88 73 15
10 22 94 72 22
10 23 90 66 24
10 24 89 73 16
10 25 89 71 18
10 26 93 67 26
10 27 90 72 18
10 28 88 65 23
10 29 90 65 25
10 30 89 68 21
11 0 91 65 26
11 1 90 65 25
11 2 90 72 18
11 3 91 70 21
11 4 93 72 21
11 5 90 65 25
11 6 93 68 25
11 7 90 73 17
11 8 90 66 24
11 9 91 70 21
11 10 92 69 23
11 11 88 64 24
11 12 87 72 15
11 13 90 64 26
11 14 91 67 24
11 15 89 72 17
11 16 92 64 28
11 17 85 67 18
11 18 92 73 19
11 19 88 71 17
11 20 510 498 12
11 21 93 71 22
11 22 94 69 25
11 23 86 71 15
11 24 89 69 20
11 25 86 64 22
11 26 87 69 18
11 27 87 69 18
11 28 90 68 22
11 29 90 67 23
11 30 91 65 26
12 0 85 64 21
12 1 90 65 25
12 2 85 72 13
12 3 89 65 24
12 4 85 65 20
12 5 91 72 19
12 6 89 68 21
12 7 94 73 21
12 8 87 72 15
12 9 87 72 15
12 10 94 71 23
12 11 91 70 21
12 12 88 67 21
12 13 85 64 21
12 14 85 72 13
12 15 93 68 25
12 16 87 72 15
12 17 86 71 15
12 18 93 73 20
12 19 92 71 21
12 20 509 491 18
12 21 89 67 22
12 22 89 73 16
12 23 92 68 24
12 24 86 70 16
12 25 92 68 24
12 26 89 71 18
12 27 89 71 18
12 28 85 73 12
12 29 86 73 13
12 30 93 69 24
13 0 87 71 16
13 1 94 69 25
13 2 92 67 25
13 3 93 68 25
13 4 89 72 17
13 5 89 69 20
13 6 86 65 21
13 7 92 73 19
13 8 92 73 19
13 9 89 69 20
13 10 88 66 22
13 11 86 65 21
13 12 87 73 14
13 13 89 69 20
13 14 90 66 24
13 15 93 70 23
13 16 91 67 24
13 17 89 73 16
13 18 91 69 22
13 19 85 70 15
13 20 503 492 11
13 21 88 65 23
13 22 91 65 26
13 23 87 72 15
13 24 90 69 21
13 25 86 64 22
13 26 88 73 15
13 27 90 67 23
13 28 86 71 15
13 29 85 66 19
13 30 86 70 16
14 0 88 67 21
14 1 93 72 21
14 2 87 72 15
14 3 90 73 17
14 4 90 68 22
14 5 88 66 22
14 6 93 64 29
14 7 86 66 20
14 8 89 68 21
14 9 92 70 22
14 10 89 73 16
14 11 87 68 19
14 12 94 72 22
14 13 94 71 23
14 14 85 72 13
14 15 86 68 18
14 16 91 72 19
14 17 94 64 30
14 18 91 64 27
14 19 90 66 24
14 20 510 496 14
14 21 86 71 15
14 22 85 73 12
14 23 93 71 22
14 24 89 65 24
14 25 91 68 23
14 26 91 68 23
14 27 85 64 21
14 28 93 73 20
14 29 87 66 21
14 30 86 67 19
15 0 92 66 26
15 1 86 72 14
15 2 85 73 12
15 3 92 65 27
15 4 87 73 14
15 5 91 65 26
15 6 89 68 21
15 7 91 67 24
15 8 91 66 25
15 9 91 72 19
15 10 93 71 22
15 11 89 73 16
15 12 93 70 23
15 13 85 69 16
15 14 87 68 19
15 15 92 67 25
15 16 88 65 23
15 17 91 65 26
15 18 89 65 24
15 19 90 67 23
15 20 506 490 16
15 21 92 68 24
15 22 89 73 16
15 23 88 70 18
15 24 86 66 20
15 25 92 65 27
15 26 89 68 21
15 27 85 73 12
15 28 85 65 20
15 29 93 69 24
15 30 93 70 23
16 0 94 71 23
16 1 92 73 19
16 2 93 71 22
16 3 86 71 15
16 4 87 65 22
16 5 91 66 25
16 6 87 68 19
16 7 93 70 23
16 8 94 68 26
16 9 92 70 22
16 10 90 68 22
16 11 85 64 21
16 12 89 64 25
16 13 89 64 25
16 14 86 67 19
16 15 92 71 21
16 16 87 71 16
16 17 90 71 19
16 18 94 69 25
16 19 85 64 21
16 20 505 491 14
16 21 86 71 15
16 22 85 72 13
16 23 90 64 26
16 24 93 66 27
16 25 93 65 28
16 26 92 66 26
16 27 87 70 17
16 28 88 64 24
16 29 91 65 26
16 30 86 72 14
17 0 93 65 28
17 1 89 70 19
17 2 86 72 14
17 3 93 68 25
17 4 85 65 20
17 5 93 72 21
17 6 88 71 17
17 7 88 67 21
17 8 92 73 19
17 9 86 72 14
17 10 93 71 22
17 11 85 64 21
17 12 88 69 19
17 13 93 65 28
17 14 89 69 20
17 15 94 65 29
17 16 93 68 25
17 17 94 71 23
17 18 93 73 20
17 19 91 66 25
17 20 504 499 5
17 21 85 67 18
17 22 86 68 18
17 23 90 71 19
17 24 90 71 19
17 25 93 64 29
17 26 94 69 25
17 27 91 64 27
17 28 91 72 19
17 29 92 64 28
17 30 90 73 17
18 0 94 66 28
18 1 85 70 15
18 2 91 72 19
18 3 92 67 25
18 4 86 69 17
18 5 93 72 21
18 6 85 66 19
18 7 90 68 22
18 8 91 66 25
18 9 92 65 27
18 10 94 69 25
18 11 92 70 22
18 12 90 65 25
18 13 94 67 27
18 14 86 67 19
18 15 86 69 17
18 16 88 72 16
18 17 94 72 22
18 18 93 65 28
18 19 94 69 25
18 20 510 494 16
18 21 94 65 29
18 22 91 72 19
18 23 92 71 21
18 24 94 64 30
18 25 85 67 18
18 26 88 71 17
18 27 87 65 22
18 28 85 73 12
18 29 93 72 21
18 30 91 72 19
19 0 86 65 21
19 1 90 72 18
19 2 87 70 17
19 3 91 72 19
19 4 85 70 15
19 5 94 67 27
19 6 85 72 13
19 7 86 70 16
19 8 90 66 24
19 9 90 71 19
19 10 93 71 22
19 11 87 73 14
19 12 89 73 16
19 13 85 64 21
19 14 90 66 24
19 15 88 73 15
19 16 93 65 28
19 17 86 72 14
19 18 90 67 23
19 19 90 65 25
19 20 502 492 10
19 21 94 71 23
19 22 94 67 27
19 23 94 67 27
19 24 86 70 16
19 25 90 66 24
19 26 93 68 25
19 27 89 67 22
19 28 89 70 19
19 29 87 72 15
19 30 89 64 25
20 0 88 68 20
20 1 88 66 22
20 2 85 66 19
20 3 92 70 22
20 4 87 68 19
20 5 91 68 23
20 6 87 66 21
20 7 88 67 21
20 8 92 65 27
20 9 93 69 24
20 10 87 67 20
20 11 91 67 24
20 12 93 68 25
20 13 91 67 24
20 14 86 65 21
20 15 85 67 18
20 16 89 68 21
20 17 89 72 17
20 18 93 70 23
20 19 85 65 20
20 20 502 491 11
20 21 92 68 24
20 22 87 70 17
20 23 93 65 28
20 24 92 70 22
20 25 87 67 20
20 26 90 64 26
20 27 88 72 16
20 28 91 66 25
20 29 91 64 27
20 30 90 68 22
21 0 88 67 21
21 1 93 71 22
21 2 92 70 22
21 3 93 69 24
21 4 87 66 21
21 5 85 72 13
21 6 94 66 28
21 7 89 65 24
21 8 92 70 22
21 9 88 67 21
21 10 91 67 24
21 11 88 70 18
21 12 93 69 24
21 13 92 72 20
21 14 94 66 28
21 15 93 70 23
21 16 90 64 26
21 17 90 66 24
21 18 94 73 21
21 19 90 68 22
21 20 505 494 11
21 21 91 67 24
21 22 92 68 24
21 23 87 71 16
21 24 85 68 17
21 25 94 70 24
21 26 88 67 21
21 27 92 66 26
21 28 91 67 24
21 29 92 65 27
21 30 92 65 27
22 0 92 64 28
22 1 94 72 22
22 2 90 70 20
22 3 85 68 17
22 4 92 70 22
22 5 89 64 25
22 6 92 64 28
22 7 86 67 19
22 8 90 70 20
22 9 92 73 19
22 10 90 64 26
22 11 92 71 21
22 12 94 68 26
22 13 94 73 21
22 14 88 67 21
22 15 86 64 22
22 16 87 71 16
22 17 85 73 12
22 18 90 67 23
22 19 86 70 16
22 20 505 490 15
22 21 93 72 21
22 22 92 73 19
22 23 92 73 19
22 24 90 71 19
22 25 90 73 17
22 26 94 64 30
22 27 86 73 13
22 28 87 72 15
22 29 92 66 26
22 30 85 71 14
23 0 94 70 24
23 1 89 72 17
23 2 87 69 18
23 3 88 70 18
23 4 94 70 24
23 5 86 66 20
23 6 90 70 20
23 7 94 71 23
23 8 87 72 15
23 9 88 70 18
23 10 93 67 26
23 11 87 71 16
23 12 86 65 21
23 13 93 73 20
23 14 94 67 27
23 15 88 66 22
23 16 94 71 23
23 17 89 66 23
23 18 91 72 19
23 19 91 67 24
23 20 506 493 13
23 21 86 69 17
23 22 87 71 16
23 23 88 66 22
23 24 90 70 20
23 25 85 67 18
23 26 85 73 12
23 27 88 66 22
23 28 91 64 27
23 29 91 65 26
23 30 91 64 27
24 0 94 68 26
24 1 85 70 15
24 2 92 69 23
24 3 87 68 19
24 4 92 64 28
24 5 91 71 20
24 6 94 64 30
24 7 92 72 20
24 8 89 68 21
24 9 87 64 23
24 10 93 66 27
24 11 86 66 20
24 12 86 69 17
24 13 86 68 18
24 14 90 70 20
24 15 86 67 19
24 16 87 71 16
24 17 88 67 21
24 18 86 69 17
24 19 90 70 20
24 20 503 495 8
24 21 85 72 13
24 22 92 64 28
24 23 88 66 22
24 24 94 64 30
24 25 88 65 23
24 26 91 67 24
24 27 92 73 19
24 28 85 64 21
24 29 86 64 22
24 30 87 64 23
25 0 89 71 18
25 1 89 64 25
25 2 94 65 29
25 3 85 72 13
25 4 87 73 14
25 5 92 67 25
25 6 93 72 21
25 7 88 68 20
25 8 92 71 21
25 9 93 68 25
25 10 89 72 17
25 11 89 70 19
25 12 90 66 24
25 13 88 70 18
25 14 90 72 18
25 15 87 66 21
25 16 93 72 21
25 17 94 68 26
25 18 94 67 27
25 19 93 73 20
25 20 509 498 11
25 21 86 70 16
25 22 91 67 24
25 23 93 64 29
25 24 89 65 24
25 25 86 69 17
25 26 92 71 21
25 27 86 65 21
25 28 89 67 22
25 29 90 66 24
25 30 92 72 20
26 0 86 65 21
26 1 91 66 25
26 2 93 67 26
26 3 87 71 16
26 4 88 67 21
26 5 88 65 23
26 6 88 70 18
26 7 86 71 15
26 8 88 73 15
26 9 94 73 21
26 10 92 69 23
26 11 93 71 22
26 12 93 65 28
26 13 87 68 19
26 14 86 68 18
26 15 89 66 23
26 16 94 69 25
26 17 89 71 18
26 18 91 70 21
26 19 88 64 24
26 20 505 493 12
26 21 89 70 19
26 22 85 68 17
26 23 94 66 28
26 24 90 67 23
26 25 92 69 23
26 26 92 64 28
26 27 91 72 19
26 28 94 72 22
26 29 94 72 22
26 30 86 67 19
27 0 86 67 19
27 1 90 69 21
27 2 94 73 21
27 3 91 65 26
27 4 85 65 20
27 5 88 67 21
27 6 92 73 19
27 7 91 73 18
27 8 94 65 29
27 9 90 72 18
27 10 89 66 23
27 11 85 72 13
27 12 94 70 24
27 13 92 67 25
27 14 89 64 25
27 15 86 65 21
27 16 89 72 17
27 17 85 66 19
27 18 92 65 27
27 19 94 66 28
27 20 507 495 12
27 21 85 66 19
27 22 92 64 28
27 23 86 70 16
27 24 92 65 27
27 25 89 73 16
27 26 85 73 12
27 27 85 70 15
27 28 91 66 25
27 29 90 68 22
27 30 90 71 19
28 0 94 72 22
28 1 94 68 26
28 2 87 70 17
28 3 89 68 21
28 4 87 67 20
28 5 89 73 16
28 6 91 67 24
28 7 92 72 20
28 8 85 71 14
28 9 86 69 17
28 10 90 66 24
28 11 90 73 17
28 12 94 71 23
28 13 89 71 18
28 14 89 66 23
28 15 94 67 27
28 16 88 65 23
28 17 86 72 14
28 18 86 70 16
28 19 88 73 15
28 20 503 495 8
28 21 93 65 28
28 22 88 66 22
28 23 87 71 16
28 24 94 65 29
28 25 88 72 16
28 26 86 69 17
28 27 87 69 18
28 28 85 66 19
28 29 87 68 19
28 30 92 64 28
29 0 85 71 14
29 1 91 71 20
29 2 91 69 22
29 3 92 67 25
29 4 94 67 27
29 5 92 72 20
29 6 89 71 18
29 7 85 67 18
29 8 94 67 27
29 9 86 71 15
29 10 91 67 24
29 11 87 71 16
29 12 94 64 30
29 13 86 73 13
29 14 87 65 22
29 15 94 67 27
29 16 91 69 22
29 17 88 72 16
29 18 88 70 18
29 19 93 73 20
29 20 504 496 8
29 21 88 72 16
29 22 90 66 24
29 23 92 66 26
29 24 87 65 22
29 25 89 64 25
29 26 94 69 25
29 27 88 64 24
29 28 87 65 22
29 29 86 69 17
29 30 88 65 23
30 0 85 66 19
30 1 92 65 27
30 2 94 70 24
30 3 87 73 14
30 4 85 68 17
30 5 87 69 18
30 6 88 69 19
30 7 88 69 19
30 8 85 65 20
30 9 88 66 22
30 10 86 67 19
30 11 89 69 20
30 12 89 67 22
30 13 94 66 28
30 14 86 70 16
30 15 91 73 18
30 16 93 70 23
30 17 86 71 15
30 18 91 73 18
30 19 88 72 16
30 20 502 491 11
30 21 93 68 25
30 22 88 68 20
30 23 93 67 26
30 24 91 73 18
30 25 86 67 19
30 26 93 66 27
30 27 94 73 21
30 28 87 66 21
30 29 92 66 26
30 30 89 72 17
31 0 89 71 18
31 1 90 73 17
31 2 86 66 20
31 3 93 66 27
31 4 89 66 23
31 5 89 64 25
31 6 89 73 16
31 7 85 73 12
31 8 93 65 28
31 9 94 67 27
31 10 87 65 22
31 11 85 69 16
31 12 91 64 27
31 13 87 68 19
31 14 86 70 16
31 15 88 67 21
31 16 92 64 28
31 17 87 72 15
31 18 91 71 20
31 19 85 70 15
31 20 508 492 16
31 21 93 65 28
31 22 93 64 29
31 23 85 73 12
31 24 92 73 19
31 25 86 69 17
31 26 85 68 17
31 27 93 70 23
31 28 86 69 17
31 29 86 65 21
31 30 87 73 14
32 0 89 70 19
32 1 87 72 15
32 2 89 67 22
32 3 86 69 17
32 4 88 69 19
32 5 87 64 23
32 6 94 72 22
32 7 91 72 19
32 8 94 72 22
32 9 94 66 28
32 10 86 65 21
32 11 85 68 17
32 12 93 64 29
32 13 88 68 20
32 14 90 67 23
32 15 91 67 24
32 16 91 73 18
32 17 89 66 23
32 18 85 67 18
32 19 89 68 21
32 20 508 499 9
32 21 94 69 25
32 22 88 67 21
32 23 90 72 18
32 24 93 72 21
32 25 89 67 22
32 26 92 71 21
32 27 92 72 20
32 28 92 72 20
32 29 88 65 23
32 30 85 65 20
